%YAML 1.1
%TAG !u! tag:unity3d.com,2011:
--- !u!114 &11400000
MonoBehaviour:
  m_ObjectHideFlags: 0
  m_PrefabParentObject: {fileID: 0}
  m_PrefabInternal: {fileID: 0}
  m_GameObject: {fileID: 0}
  m_Enabled: 1
  m_EditorHideFlags: 0
  m_Script: {fileID: 11500000, guid: ed61b40c1935b9c4d8c3b21114f5ac16, type: 3}
  m_Name: Watermelon
  m_EditorClassIdentifier: 
  DisplayName: Watermelon
  ReelSprite: {fileID: 21300000, guid: 2b3162d8d982f4990ae42242b9edaada, type: 3}
